 id,student_roll,student_section,student_name,student_gender,current_location
101,1511151,A,Aastha Gupta,Male,cp
103,1511227,A,Aayushi Agarwal,Male,cp
105,1511152,A,Abdul Hameed,Male,cp
107,1511252,A,Abhishek K,Male,cp
109,1511228,A,Abhishek Somani,Male,cp
111,1511376,A,Abishek S,Male,cp
113,1511155,A,Aditya Singhvi,Male,cp
115,1511174,A,Aditya Hungund,Male,cp
117,1511156,A,Adnan Ayub,Male,cp
119,1511002,A,Ajay Rawat,Male,cp
121,1511003,A,Akshara Meena,Male,cp
123,1511159,A,Akshata Swaroop,Male,cp
125,1511378,A,Akshay Johri,Male,cp
127,1221018,A,Althaf S,Male,cp
129,1511005,A,Ambarish Patra,Male,cp
131,1511306,A,Amit Kumar,Male,cp
133,1511160,A,Amrutha Das,Male,cp
135,1121008,A,Anand Sasidharan,Male,cp
137,1511007,A,Anit Suri,Male,cp
139,1511308,A,Ankit Anand,Male,cp
141,1511380,A,Ankit Chowdhary,Male,cp
143,1511080,A,Ankit Jain,Male,cp
145,1511008,A,Ankit Singh,Male,cp
147,1511381,A,Annie Sailo,Male,cp
149,1511163,A,Anuj Jain,Male,cp
151,1511009,A,Anuj Parekh,Male,cp
153,1511010,A,Anuj Wadhwa,Male,cp
155,1511230,A,Anup Gupta,Male,cp
157,1511382,A,Apoorva Vikal,Male,cp
159,1511311,A,Aprajita Verma,Male,cp
161,1511312,A,Aravind Sethuraj,Male,cp
163,1511164,A,Archana Ramesh,Male,cp
165,1511082,A,Archit Jain,Male,cp
167,1511383,A,Arpan Maji,Male,cp
169,1511231,A,Arun Kiran,Male,cp
171,1511083,A,Arun Majhi,Male,cp
173,1511411,A,Asawari Moon,Male,cp
175,1511084,A,Ashish Kumar,Male,cp
177,1021012,A,Ashwani Singh,Male,cp
179,1511232,A,Ashwini Vaidya,Male,cp
181,1511313,A,Asish Sethi,Male,cp
183,1511233,A,Asmit Das,Male,cp
185,1511384,A,Atul Kumar,Male,cp
187,1511234,A,Atul Sharan,Male,cp
189,1511085,A,Avinash Kumar,Male,cp
191,1511314,A,Avinash Sam,Male,cp
193,1511013,A,Avishek Biswas,Male,cp
195,1511086,A,Ayush Kumar,Male,cp
197,1411149,A,Battula Arunisha,Male,cp
199,1511138,A,Bhalakumar V,Male,cp
201,1511145,A,Bharat Subramanian,Male,cp
203,1511016,A,Bhavesh Birla,Male,cp
205,1511017,A,Binandita De,Male,cp
207,1511088,A,Biswajit Marndi,Male,cp
209,1511386,A,Buddharatn Ratawal,Male,cp
211,1511236,A,Chaitanya Goyal,Male,cp
213,1511239,A,Chandan S,Male,cp
215,1511240,A,Chandan Pathak,Male,cp
219,1511238,A,Chandan Kumar,Male,cp
221,1511316,A,Chetan Dixit,Male,cp
223,1511387,A,Chetan Jadhav,Male,cp
225,1511318,A,Debraj Mandal,Male,cp
227,1511235,A,Deepika Bhat,Male,cp
229,1511390,A,Deepika Mallyk,Male,cp
231,1511171,A,Devendra Meel,Male,cp
233,1511172,A,Devinder Yadav,Male,cp
235,1411294,A,Dhinesh R,Male,cp
237,1511092,A,Digvijay Singh,Male,cp
239,1511391,A,Dikshya Routray,Male,cp
241,1511320,A,Divyashree Panda,Male,cp
243,1511019,A,Diwakar Jain,Male,cp
245,1511422,A,Durga Sameera,Male,cp
247,1511094,A,Faizan Ahmed,Male,cp
249,1511243,A,Fathima Safna,Male,cp
251,1511322,A,Gaurav Prasad,Male,cp
253,1511394,A,Geet Amrit,Male,cp
255,1511020,A,Girish Krishna,Male,cp
257,1511246,A,Gompa Satyamurthy,Male,cp
259,1511395,A,Grishma Kumar,Male,cp
261,1511022,A,Hanie Salim,Male,cp
263,1511249,A,Himansu Sahu,Male,cp
265,1511323,A,Hitesh Kumar,Male,cp
267,1511250,A,Hoysala Madalageri,Male,cp
269,1511324,A,Ipsita Das,Male,cp
271,1511397,A,Jagruti Bharatkumar,Male,cp
273,1511332,A,Jainil Lakhani,Male,cp
275,1511177,A,Jayathan J,Male,cp
277,1511023,A,Jayesh Bhansali,Male,cp
279,1221002,A,Jaykumar Padmanabhan,Male,cp
281,1511175,A,Jigar Jatakia,Male,cp
283,1511325,A,Jitendra Singh,Male,cp
285,1511096,A,Jitesh Yadav,Male,cp
287,1511326,A,Jobin Sukumaran,Male,cp
289,1511025,A,Joy Kiran,Male,cp
291,1511178,A,Joydeep Chakraborty,Male,cp
293,1511328,A,Jyoti Doley,Male,cp
295,1411099,A,Kalpesh Wani,Male,cp
297,1511399,A,Kanhaiya Kumar,Male,cp
299,1511329,A,Kanika Bansal,Male,cp
301,1511330,A,Karthik M,Male,cp
303,1511180,A,Kartikeya Tayal,Male,cp
305,1511400,A,Kaushal Kishor,Male,cp
307,1511170,A,Keerthika D,Male,cp
309,1511254,A,Khushboo,Male,cp
311,1511402,A,Krishma Mehra,Male,cp
313,1511331,A,Kshitiz Aneja,Male,cp
315,1511100,A,Kuldeep Yadav,Male,cp
317,1511256,A,Kumar Vikrant,Male,cp
319,1511257,A,Kunal Kejriwal,Male,cp
321,1511182,A,Kushal Singhal,Male,cp
323,1511404,A,Ladong Jamir,Male,cp
325,1511168,A,Madhur Bajpai,Male,cp
327,1511187,A,Mahesh Venkatesan,Male,cp
329,1511259,A,Malavika Vishwanath,Male,cp
331,1511184,A,Manasa M,Male,cp
333,1511030,A,Manish Kutarmare,Male,cp
335,1511407,A,Manish Pandey,Male,cp
337,1511369,A,Manogna Mandepudi,Male,cp
339,1511295,A,Mirank Maheshwari,Male,cp
341,1511334,A,Mishita Jaiswal,Male,cp
343,1511102,A,Mithun Ganesh,Male,cp
345,1511335,A,Mohammad Sarosh,Male,cp
347,1511103,A,Mohan Raj,Male,cp
349,1511261,A,Mohit Motwani,Male,cp
351,1511336,A,Mohit Taak,Male,cp
353,1511104,A,Monalisa Sethi,Male,cp
355,1511412,A,Moumita Dey,Male,cp
357,1511089,A,Mounika Boddeda,Male,cp
359,1511337,A,Mrinalini Singh,Male,cp
361,1511338,A,Nabil Rasheed,Male,cp
363,1511413,A,Nafeesa Gupta,Male,cp
365,1511321,A,Nagender Goud,Male,cp
367,1511031,A,Naiya Mehta,Male,cp
369,1511033,A,Nandita Bhaskaran,Male,cp
371,1511339,A,Navaneethakrishnan P,Male,cp
373,1511188,A,Nihar Khillar,Male,cp
375,1511262,A,Nikhitha Bandi,Male,cp
377,1511264,A,Niteen Singh,Male,cp
379,1511409,A,Nithin Kumar,Male,cp
381,1511189,A,Pala Sriram,Male,cp
383,1511190,A,Paldeep Das,Male,cp
385,1511191,A,Parag Pandav,Male,cp
387,1511417,A,Parajdeep Singh,Male,cp
389,1511192,A,Paramasivan E,Male,cp
391,1511097,A,Pavani Kavya,Male,cp
393,1511265,A,Pavithra Mutyap,Male,cp
395,1511037,A,Peeyush Agrawal,Male,cp
397,1511038,A,Poovitha M,Male,cp
399,1511419,A,Pragyagni Mehta,Male,cp
401,1511107,A,Prakashkumar N,Male,cp
403,1411043,A,Prakrin Kumar,Male,cp
405,1511341,A,Pramod Rangarajan,Male,cp
407,1411023,A,Pranay Siddharth,Male,cp
409,1511195,A,Prashant Varu,Male,cp
411,1511109,A,Prathamesh L,Male,cp
413,1511196,A,Pratik Pathrabe,Male,cp
415,1511040,A,Praveen J,Male,cp
417,1511268,A,Praveen Maurya,Male,cp
419,1511121,A,Praveen Shanmugam,Male,cp
421,1511343,A,Preetisha Das,Male,cp
423,1511111,A,Prem Prakash,Male,cp
425,1511041,A,Priya Jain,Male,cp
427,1511032,A,Priyadarshini Moola,Male,cp
429,1511112,A,Priyanka Attri,Male,cp
431,1511269,A,Priyanshi Agrawal,Male,cp
433,1511423,A,Pulkit Aggarwal,Male,cp
435,1511345,A,Punit Parekh,Male,cp
437,1511167,A,Pushpdeep Bahade,Male,cp
439,1511424,A,Rachit Tanjeem,Male,cp
441,1511310,A,Raghavendra Aditya,Male,cp
443,1511199,A,Raghu Ram ,Male,cp
445,1511303,A,Rahul Agrawal,Male,cp
447,1511221,A,Rahul Sarkar,Male,cp
449,1511425,A,Rajkamal Ganesan,Male,cp
451,1511427,A,Rajkumar Chandrasekaran,Male,cp
453,1511346,A,Rakshith K,Male,cp
455,1511415,A,Ramanath Pai,Male,cp
457,1511113,A,Rasham Garg,Male,cp
459,1511347,A,Rathish R,Male,cp
461,1511200,A,Ravi Shankar,Male,cp
463,1511044,A,Ravinder Singh,Male,cp
465,1511348,A,Rinku Stephen,Male,cp
467,1511201,A,Rishabh Gupta,Male,cp
469,1511270,A,Rishabh Khandelwal,Male,cp
471,1511116,A,Rishabh Raj,Male,cp
473,1511271,A,Ritabrata Dhar,Male,cp
475,1511117,A,Ritika Gupta,Male,cp
477,1511118,A,Rituparna Malik,Male,cp
479,1511272,A,Rohan Lodaria,Male,cp
481,1511350,A,Rohit Kumar,Male,cp
483,1511428,A,Rohit Ragupal,Male,cp
485,1511119,A,Rohit Raj,Male,cp
487,1511429,A,Rongali Madhavi,Male,cp
489,1511046,A,Rose Ketty,Male,cp
491,1511120,A,Rupsa Dasgupta,Male,cp
493,1511122,A,Sachin Kumar,Male,cp
495,1511048,A,Sachin Pratik,Male,cp
497,1511049,A,Sagnik Choudhury,Male,cp
499,1511351,A,Sahil Kukreja,Male,cp
501,1511202,A,Sahil Makkar,Male,cp
503,1511405,A,Sai Chaitanya,Male,cp
505,1511050,A,Saisharan Vanam,Male,cp
507,1511278,A,Sanchit Singhal,Male,cp
509,1511052,A,Sandeep Sahu,Male,cp
511,1511430,A,Sandip Datta,Male,cp
513,1511431,A,Sangbarta Chakraborty,Male,cp
515,1511352,A,Sanjeev Ranjan,Male,cp
517,1511398,A,Sanket Kale,Male,cp
519,1511279,A,Sarang A,Male,cp
521,1511280,A,Sarvesh Yadav,Male,cp
523,1411399,A,Satya Surya,Male,cp
525,1511432,A,Satyaprakash Sahoo,Male,cp
527,1511281,A,Saurabh Das,Male,cp
529,1511204,A,Selvakumar A,Male,cp
531,1511282,A,Selvaraj E,Male,cp
533,1511283,A,Senthilvel S,Male,cp
535,1511185,A,Sharanya M,Male,cp
537,1511124,A,Sharmili Adhikari,Male,cp
539,1511095,A,Sharwari Gogte,Male,cp
541,1511354,A,Shashank Narendra,Male,cp
543,1511126,A,Shashanka B,Male,cp
545,1511127,A,Shifa Garg,Male,cp
547,1511434,A,Shikhar Sethi,Male,cp
549,1511055,A,Shireen Salma ,Male,cp
551,1511356,A,Shiva Rohit,Male,cp
553,1511205,A,Shivender Malik,Male,cp
555,1511358,A,Shivendra Pratap,Male,cp
557,1511206,A,Shreya Aggarwal,Male,cp
559,1511435,A,Shreya Garg,Male,cp
561,1511207,A,Shruthi S,Male,cp
563,1511208,A,Shubham Saurabh,Male,cp
565,1511359,A,Shubham Shukla,Male,cp
567,1511209,A,Shubhangi Nayak,Male,cp
569,1511436,A,Shubhankar Shakhari,Male,cp
571,1511128,A,Shubhayu Bera,Male,cp
573,1511210,A,Siddharth Jain,Male,cp
575,1511056,A,Siddharth Kannan,Male,cp
577,1511360,A,Siddharth Singh,Male,cp
579,1511123,A,Soham Shah,Male,cp
581,1511363,A,Sohil Mahajan,Male,cp
583,1511133,A,Somnath Das,Male,cp
585,1511211,A,Sonia Loi,Male,cp
587,1511438,A,Srinivas Mane,Male,cp
589,1511315,A,Sriram C,Male,cp
591,1511029,A,Srishti Malpath,Male,cp
593,1511134,A,Subhojoy Maji,Male,cp
595,1511288,A,Subramaniam M,Male,cp
597,1511058,A,Sudhir Verma,Male,cp
599,1511289,A,Sudipta Das,Male,cp
601,1511213,A,Suhas Maji,Male,cp
603,1511290,A,Suman Saurabh,Male,cp
605,1511135,A,Sumana R,Male,cp
607,1511028,A,Sumanth K,Male,cp
609,1511136,A,Sushobit Choudhary,Male,cp
611,1511317,A,Suzith D,Male,cp
613,1511059,A,Swati Garg,Male,cp
615,1511291,A,Swati Kanojia,Male,cp
617,1511366,A,Tejas H,Male,cp
619,1511137,A,Tina Chaudhari,Male,cp
621,1511216,A,Tushar Gupta,Male,cp
623,1511260,A,Udai Kumar,Male,cp
625,1511064,A,Utkarsh,Male,cp
627,1511441,A,Vaibhav Jain,Male,cp
629,1511065,A,Vaishnavi S,Male,cp
631,1511066,A,Valentine Fargose,Male,cp
633,1511140,A,Vanshraj Roy,Male,cp
635,1511070,A,Vardha Dilkush,Male,cp
637,1511021,A,Varshitha Gokari,Male,cp
639,1511142,A,Vikas Kumar,Male,cp
641,1511220,A,Viraj Rathwa,Male,cp
643,1511293,A,Vivek Bajpai,Male,cp
645,1511069,A,Vivek Kirubakaran,Male,cp
647,1511068,A,Vivek T,Male,cp
649,1511294,A,Vrinda Singh,Female,cp
651,1511443,A,Vysakh Murali,Male,cp
653,1511367,A,Yogesh Choudhary,Male,cp
655,1511219,A,Yunus Feroze,Male,cp